// Jest Snapshot v1, https://goo.gl/fbAQLP

exports[`uploader reducer should handle FILE_READER_ERROR 1`] = `
Object {
  "uploadError": "",
}
`;

exports[`uploader reducer should handle FILE_READER_PROGRESS 1`] = `
Object {
  "uploadProgress": 0,
}
`;

exports[`uploader reducer should handle FILE_READER_SUCCESS 1`] = `
Object {
  "uploadData": Array [],
  "uploadDataColumns": Array [],
}
`;

exports[`uploader reducer should handle FILE_SELECTION_ERROR 1`] = `
Object {
  "fileError": "",
}
`;

exports[`uploader reducer should handle FILE_SELECTION_SUCCESS 1`] = `
Object {
  "file": Object {},
  "fileSize": 0,
}
`;

exports[`uploader reducer should handle HANDLE_NEXT_STEP 1`] = `
Object {
  "step": 0,
}
`;

exports[`uploader reducer should handle HANDLE_PREVIOUS_STEP 1`] = `
Object {
  "file": null,
  "fileSize": 0,
  "step": 0,
}
`;

exports[`uploader reducer should return the initial state 1`] = `
Object {
  "uploader": Object {
    "file": null,
    "fileError": null,
    "fileSize": 0,
    "step": 0,
    "uploadData": Array [],
    "uploadDataColumns": Array [],
    "uploadError": null,
    "uploadProgress": 0,
  },
}
`;
